{
	"info": {
		"_postman_id": "2f8c0dba-dceb-4919-9964-952ed6273cd4",
		"name": "WebApp-FCM",
		"schema": "https://schema.getpostman.com/json/collection/v2.1.0/collection.json"
	},
	"item": [
		{
			"name": "FCM SEND",
			"request": {
				"method": "POST",
				"header": [
					{
						"key": "Authorization",
						"value": "key=AAAAFGi0w2w:APA91bGuww6nQNuGufGBnByez7G095-5hPBaUy-Z8tSzZIR-qjvKZ0LXZeXIXMuO8zx96oovpIJSsbK_UQUIWU_DqgTOOZ-chtc5spAKAoCRCsFHKw3FttKEnNLGUPQhN6VAv1Zu5Yxu",
						"type": "text"
					},
					{
						"key": "Content-Type",
						"value": "application/json",
						"type": "text"
					}
				],
				"body": {
					"mode": "raw",
					"raw": "{\r\n \"to\" : \"ce6HkubQDUU:APA91bErK9xZNaEdqvPVldVkDad24Af4gGUY5zCCNu8jZ1RaOHP-Aw7Kn5gdgYjMze5j69eYQ2eFbNfAaAj2pUS0YwZh2mfZJDUMiegkInmarh6TUwIXM_g8gEGhAwjmRh41EF6_Oj6F\",\r\n \"to\": \"ekE0ZzMiObo:APA91bFys_1x4Dk8gvMzj2oT30jRDdncUls4t2UkRW-SpPQGS5R4LhHtD9SgU_gzUkttUjEW3ksu-FJHM-5T25DZjhdcCtqEGmviW4ur-2DOw_EtJLoUI9d-c1_o5RKzfGuxxW3qq5Gx\",\r\n  \"to\": \"e5o_HqxPqB8:APA91bH1GY3SnfGi76K2R0uzyH6hDz2upM2xusJSSCvkCZtU7hFSsLk8lAOkLpIP8egdFQYogZtn7sfD8nIIN9CGUAj0tARgKuU9pgbRDVM_4SzC2t7FRJ-C7a8ea_RVhAhf_aeI05Ub\",\r\n  \"to\": \"e5o_HqxPqB8:APA91bH1GY3SnfGi76K2R0uzyH6hDz2upM2xusJSSCvkCZtU7hFSsLk8lAOkLpIP8egdFQYogZtn7sfD8nIIN9CGUAj0tARgKuU9pgbRDVM_4SzC2t7FRJ-C7a8ea_RVhAhf_aeI05Ub\",\r\n \"notification\" : {\r\n     \"body\" : \"It's FCM Web App Notification 😉\",\r\n     \"title\": \"Notification 😘❤\",\r\n     \"click_action\":\" https://webapp-notification-24149.firebaseapp.com\",\r\n     \"icon\" : \"https://firebasestorage.googleapis.com/v0/b/webapp-notification-24149.appspot.com/o/fcm%20icon.jpg?alt=media&token=7131beb8-84b5-4b8b-ba34-99b0e6d1e170\",\r\n     \"sound\" : \"default\"\r\n }\r\n \r\n}"
				},
				"url": {
					"raw": "https://fcm.googleapis.com/fcm/send",
					"protocol": "https",
					"host": [
						"fcm",
						"googleapis",
						"com"
					],
					"path": [
						"fcm",
						"send"
					]
				}
			},
			"response": []
		}
	]
}